…
Find out what the top 10 professions in terms of amount are

```r
df.Occupation <- df %>% 
               group_by(Occupation) %>%
               summarise(count = n()) %>%
               ungroup() %>%
               arrange(desc(count))

df.Occupation
```

```
## # A tibble: 68 x 2
##                  Occupation count
##                       <chr> <int>
## 1                     Other 21122
## 2              Professional 10445
## 3                 Executive  3437
## 4       Computer Programmer  3200
## 5                   Teacher  2858
## 6                   Analyst  2711
## 7  Administrative Assistant  2697
## 8            Accountant/CPA  2550
## 9        Sales - Commission  2318
## 10            Skilled Labor  2157
## # ... with 58 more rows
```
…
